DATOS/barras rotas/DS0001.CSV

Format,2.0A,
Memory Length,1000,
Trigger Level,0.000E+00,
Source,FFT,
Label, ,
Probe Ratio,1.000E+00,
Vertical Units,dB,
Vertical Scale,2.000E+01,
Vertical Position,0.000000E+00Div,
Horizontal Units,Hz,
Horizontal Scale,2.50KHz,
Horizontal Position,0.000E+00,
Horizontal Mode,Main,
Sampling Period,2.500E+01,
Firmware,V1.30,
Time,25-Jan-22 03:22:20,
Mode,Detail,
Waveform Data,
0.000000e+00,-2.48e+01,
2.500000e+01,-2.00e+01,
5.000000e+01,-8.80e+00,
7.500000e+01,-1.20e+01,
1.000000e+02,-2.16e+01,
1.250000e+02,-2.16e+01,
1.500000e+02,-2.64e+01,
1.750000e+02,-2.80e+01,
2.000000e+02,-3.04e+01,
2.250000e+02,-3.12e+01,
2.500000e+02,-3.28e+01,
2.750000e+02,-3.36e+01,
3.000000e+02,-3.36e+01,
3.250000e+02,-3.52e+01,
3.500000e+02,-3.60e+01,
3.750000e+02,-3.84e+01,
4.000000e+02,-3.76e+01,
4.250000e+02,-3.60e+01,
4.500000e+02,-3.84e+01,
4.750000e+02,-3.92e+01,
5.000000e+02,-3.92e+01,
5.250000e+02,-4.00e+01,
5.500000e+02,-4.08e+01,
5.750000e+02,-4.16e+01,
6.000000e+02,-4.16e+01,
6.250000e+02,-3.92e+01,
6.500000e+02,-4.08e+01,
6.750000e+02,-4.24e+01,
7.000000e+02,-4.32e+01,
7.250000e+02,-4.88e+01,
7.500000e+02,-3.92e+01,
7.750000e+02,-4.16e+01,
8.000000e+02,-4.40e+01,
8.250000e+02,-4.24e+01,
8.500000e+02,-4.24e+01,
8.750000e+02,-4.32e+01,
9.000000e+02,-4.40e+01,
9.250000e+02,-4.56e+01,
9.500000e+02,-4.48e+01,
9.750000e+02,-4.40e+01,
1.000000e+03,-4.40e+01,
1.025000e+03,-4.48e+01,
1.050000e+03,-4.56e+01,
1.075000e+03,-4.48e+01,
1.100000e+03,-4.64e+01,
1.125000e+03,-4.56e+01,
1.150000e+03,-4.64e+01,
1.175000e+03,-4.56e+01,
1.200000e+03,-4.56e+01,
1.225000e+03,-4.80e+01,
1.250000e+03,-4.56e+01,
1.275000e+03,-4.64e+01,
1.300000e+03,-4.64e+01,
1.325000e+03,-4.72e+01,
1.350000e+03,-4.72e+01,
1.375000e+03,-4.64e+01,
1.400000e+03,-4.72e+01,
1.425000e+03,-4.80e+01,
1.450000e+03,-4.88e+01,
1.475000e+03,-4.72e+01,
1.500000e+03,-4.96e+01,
1.525000e+03,-4.96e+01,
1.550000e+03,-4.88e+01,
1.575000e+03,-4.96e+01,
1.600000e+03,-4.88e+01,
1.625000e+03,-4.80e+01,
1.650000e+03,-5.04e+01,
1.675000e+03,-4.88e+01,
1.700000e+03,-4.80e+01,
1.725000e+03,-4.96e+01,
1.750000e+03,-4.88e+01,
1.775000e+03,-4.80e+01,
1.800000e+03,-5.12e+01,
1.825000e+03,-5.12e+01,
1.850000e+03,-4.80e+01,
1.875000e+03,-5.04e+01,
1.900000e+03,-5.12e+01,
1.925000e+03,-5.20e+01,
1.950000e+03,-5.12e+01,
1.975000e+03,-5.04e+01,
2.000000e+03,-5.04e+01,
2.025000e+03,-4.96e+01,
2.050000e+03,-5.28e+01,
2.075000e+03,-5.12e+01,
2.100000e+03,-5.12e+01,
2.125000e+03,-5.04e+01,
2.150000e+03,-5.20e+01,
2.175000e+03,-5.12e+01,
2.200000e+03,-5.52e+01,
2.225000e+03,-5.12e+01,
2.250000e+03,-5.44e+01,
2.275000e+03,-5.36e+01,
2.300000e+03,-5.04e+01,
2.325000e+03,-5.20e+01,
2.350000e+03,-5.28e+01,
2.375000e+03,-5.20e+01,
2.400000e+03,-5.20e+01,
2.425000e+03,-5.28e+01,
2.450000e+03,-5.20e+01,
2.475000e+03,-5.36e+01,
2.500000e+03,-5.52e+01,
2.525000e+03,-5.36e+01,
2.550000e+03,-5.20e+01,
2.575000e+03,-5.44e+01,
2.600000e+03,-5.28e+01,
2.625000e+03,-5.20e+01,
2.650000e+03,-5.20e+01,
2.675000e+03,-5.44e+01,
2.700000e+03,-5.28e+01,
2.725000e+03,-5.12e+01,
2.750000e+03,-5.36e+01,
2.775000e+03,-5.28e+01,
2.800000e+03,-5.52e+01,
2.825000e+03,-5.52e+01,
2.850000e+03,-5.36e+01,
2.875000e+03,-5.44e+01,
2.900000e+03,-5.36e+01,
2.925000e+03,-5.12e+01,
2.950000e+03,-5.68e+01,
2.975000e+03,-5.52e+01,
3.000000e+03,-5.36e+01,
3.025000e+03,-5.36e+01,
3.050000e+03,-5.52e+01,
3.075000e+03,-5.44e+01,
3.100000e+03,-5.44e+01,
3.125000e+03,-5.92e+01,
3.150000e+03,-5.36e+01,
3.175000e+03,-5.28e+01,
3.200000e+03,-5.60e+01,
3.225000e+03,-5.36e+01,
3.250000e+03,-5.52e+01,
3.275000e+03,-5.28e+01,
3.300000e+03,-5.76e+01,
3.325000e+03,-5.60e+01,
3.350000e+03,-5.52e+01,
3.375000e+03,-5.52e+01,
3.400000e+03,-5.92e+01,
3.425000e+03,-5.36e+01,
3.450000e+03,-5.44e+01,
3.475000e+03,-5.36e+01,
3.500000e+03,-6.00e+01,
3.525000e+03,-5.52e+01,
3.550000e+03,-5.52e+01,
3.575000e+03,-5.68e+01,
3.600000e+03,-6.08e+01,
3.625000e+03,-5.68e+01,
3.650000e+03,-5.36e+01,
3.675000e+03,-5.52e+01,
3.700000e+03,-5.60e+01,
3.725000e+03,-5.52e+01,
3.750000e+03,-5.68e+01,
3.775000e+03,-5.84e+01,
3.800000e+03,-5.60e+01,
3.825000e+03,-5.36e+01,
3.850000e+03,-5.36e+01,
3.875000e+03,-5.52e+01,
3.900000e+03,-5.52e+01,
3.925000e+03,-5.52e+01,
3.950000e+03,-5.60e+01,
3.975000e+03,-5.52e+01,
4.000000e+03,-5.76e+01,
4.025000e+03,-5.92e+01,
4.050000e+03,-5.52e+01,
4.075000e+03,-6.08e+01,
4.100000e+03,-6.16e+01,
4.125000e+03,-6.00e+01,
4.150000e+03,-5.36e+01,
4.175000e+03,-5.84e+01,
4.200000e+03,-5.68e+01,
4.225000e+03,-5.60e+01,
4.250000e+03,-5.36e+01,
4.275000e+03,-6.00e+01,
4.300000e+03,-5.92e+01,
4.325000e+03,-5.60e+01,
4.350000e+03,-5.52e+01,
4.375000e+03,-5.76e+01,
4.400000e+03,-5.60e+01,
4.425000e+03,-5.52e+01,
4.450000e+03,-5.60e+01,
4.475000e+03,-6.00e+01,
4.500000e+03,-5.60e+01,
4.525000e+03,-5.84e+01,
4.550000e+03,-5.44e+01,
4.575000e+03,-6.24e+01,
4.600000e+03,-5.68e+01,
4.625000e+03,-5.92e+01,
4.650000e+03,-5.68e+01,
4.675000e+03,-5.76e+01,
4.700000e+03,-6.08e+01,
4.725000e+03,-5.60e+01,
4.750000e+03,-5.52e+01,
4.775000e+03,-5.44e+01,
4.800000e+03,-5.68e+01,
4.825000e+03,-5.76e+01,
4.850000e+03,-5.52e+01,
4.875000e+03,-6.08e+01,
4.900000e+03,-5.84e+01,
4.925000e+03,-5.76e+01,
4.950000e+03,-6.32e+01,
4.975000e+03,-6.24e+01,
5.000000e+03,-6.00e+01,
5.025000e+03,-6.00e+01,
5.050000e+03,-6.24e+01,
5.075000e+03,-6.16e+01,
5.100000e+03,-5.68e+01,
5.125000e+03,-6.00e+01,
5.150000e+03,-6.16e+01,
5.175000e+03,-6.08e+01,
5.200000e+03,-6.00e+01,
5.225000e+03,-5.84e+01,
5.250000e+03,-6.40e+01,
5.275000e+03,-5.76e+01,
5.300000e+03,-5.84e+01,
5.325000e+03,-6.08e+01,
5.350000e+03,-6.32e+01,
5.375000e+03,-5.68e+01,
5.400000e+03,-5.92e+01,
5.425000e+03,-5.76e+01,
5.450000e+03,-5.60e+01,
5.475000e+03,-5.68e+01,
5.500000e+03,-5.68e+01,
5.525000e+03,-5.68e+01,
5.550000e+03,-5.84e+01,
5.575000e+03,-5.76e+01,
5.600000e+03,-6.16e+01,
5.625000e+03,-5.84e+01,
5.650000e+03,-5.92e+01,
5.675000e+03,-5.92e+01,
5.700000e+03,-6.24e+01,
5.725000e+03,-5.92e+01,
5.750000e+03,-6.16e+01,
5.775000e+03,-5.76e+01,
5.800000e+03,-6.16e+01,
5.825000e+03,-6.00e+01,
5.850000e+03,-5.68e+01,
5.875000e+03,-6.00e+01,
5.900000e+03,-5.92e+01,
5.925000e+03,-6.08e+01,
5.950000e+03,-6.24e+01,
5.975000e+03,-5.68e+01,
6.000000e+03,-6.56e+01,
6.025000e+03,-5.76e+01,
6.050000e+03,-6.00e+01,
6.075000e+03,-5.76e+01,
6.100000e+03,-6.32e+01,
6.125000e+03,-6.08e+01,
6.150000e+03,-6.08e+01,
6.175000e+03,-5.92e+01,
6.200000e+03,-6.16e+01,
6.225000e+03,-6.00e+01,
6.250000e+03,-7.12e+01,
6.275000e+03,-6.00e+01,
6.300000e+03,-5.68e+01,
6.325000e+03,-6.08e+01,
6.350000e+03,-6.00e+01,
6.375000e+03,-6.08e+01,
6.400000e+03,-6.00e+01,
6.425000e+03,-6.32e+01,
6.450000e+03,-7.28e+01,
6.475000e+03,-6.00e+01,
6.500000e+03,-6.00e+01,
6.525000e+03,-5.76e+01,
6.550000e+03,-5.92e+01,
6.575000e+03,-5.76e+01,
6.600000e+03,-5.92e+01,
6.625000e+03,-5.68e+01,
6.650000e+03,-6.32e+01,
6.675000e+03,-5.76e+01,
6.700000e+03,-6.16e+01,
6.725000e+03,-6.00e+01,
6.750000e+03,-6.00e+01,
6.775000e+03,-6.24e+01,
6.800000e+03,-5.92e+01,
6.825000e+03,-6.00e+01,
6.850000e+03,-5.92e+01,
6.875000e+03,-6.48e+01,
6.900000e+03,-6.40e+01,
6.925000e+03,-6.16e+01,
6.950000e+03,-6.24e+01,
6.975000e+03,-6.24e+01,
7.000000e+03,-5.76e+01,
7.025000e+03,-6.48e+01,
7.050000e+03,-6.16e+01,
7.075000e+03,-6.24e+01,
7.100000e+03,-6.48e+01,
7.125000e+03,-5.68e+01,
7.150000e+03,-6.08e+01,
7.175000e+03,-6.32e+01,
7.200000e+03,-5.68e+01,
7.225000e+03,-5.76e+01,
7.250000e+03,-6.56e+01,
7.275000e+03,-5.76e+01,
7.300000e+03,-5.84e+01,
7.325000e+03,-5.92e+01,
7.350000e+03,-6.08e+01,
7.375000e+03,-6.00e+01,
7.400000e+03,-6.08e+01,
7.425000e+03,-5.92e+01,
7.450000e+03,-6.24e+01,
7.475000e+03,-6.24e+01,
7.500000e+03,-7.12e+01,
7.525000e+03,-6.08e+01,
7.550000e+03,-6.24e+01,
7.575000e+03,-6.32e+01,
7.600000e+03,-6.40e+01,
7.625000e+03,-6.24e+01,
7.650000e+03,-6.40e+01,
7.675000e+03,-6.16e+01,
7.700000e+03,-6.16e+01,
7.725000e+03,-6.00e+01,
7.750000e+03,-5.84e+01,
7.775000e+03,-5.60e+01,
7.800000e+03,-5.76e+01,
7.825000e+03,-6.24e+01,
7.850000e+03,-5.76e+01,
7.875000e+03,-6.24e+01,
7.900000e+03,-6.08e+01,
7.925000e+03,-6.24e+01,
7.950000e+03,-6.08e+01,
7.975000e+03,-6.56e+01,
8.000000e+03,-6.56e+01,
8.025000e+03,-6.32e+01,
8.050000e+03,-6.64e+01,
8.075000e+03,-6.32e+01,
8.100000e+03,-6.64e+01,
8.125000e+03,-6.88e+01,
8.150000e+03,-6.00e+01,
8.175000e+03,-6.96e+01,
8.200000e+03,-6.56e+01,
8.225000e+03,-6.16e+01,
8.250000e+03,-6.00e+01,
8.275000e+03,-6.88e+01,
8.300000e+03,-6.00e+01,
8.325000e+03,-6.00e+01,
8.350000e+03,-6.32e+01,
8.375000e+03,-6.72e+01,
8.400000e+03,-7.20e+01,
8.425000e+03,-6.08e+01,
8.450000e+03,-6.64e+01,
8.475000e+03,-6.16e+01,
8.500000e+03,-6.00e+01,
8.525000e+03,-6.08e+01,
8.550000e+03,-6.72e+01,
8.575000e+03,-6.56e+01,
8.600000e+03,-5.92e+01,
8.625000e+03,-5.68e+01,
8.650000e+03,-6.08e+01,
8.675000e+03,-6.24e+01,
8.700000e+03,-6.24e+01,
8.725000e+03,-6.00e+01,
8.750000e+03,-6.72e+01,
8.775000e+03,-7.20e+01,
8.800000e+03,-6.64e+01,
8.825000e+03,-6.56e+01,
8.850000e+03,-6.08e+01,
8.875000e+03,-7.52e+01,
8.900000e+03,-6.16e+01,
8.925000e+03,-6.32e+01,
8.950000e+03,-6.72e+01,
8.975000e+03,-6.48e+01,
9.000000e+03,-6.08e+01,
9.025000e+03,-6.40e+01,
9.050000e+03,-6.48e+01,
9.075000e+03,-6.40e+01,
9.100000e+03,-6.40e+01,
9.125000e+03,-6.00e+01,
9.150000e+03,-6.24e+01,
9.175000e+03,-6.24e+01,
9.200000e+03,-5.92e+01,
9.225000e+03,-5.76e+01,
9.250000e+03,-6.64e+01,
9.275000e+03,-6.56e+01,
9.300000e+03,-6.48e+01,
9.325000e+03,-5.68e+01,
9.350000e+03,-7.04e+01,
9.375000e+03,-5.68e+01,
9.400000e+03,-5.92e+01,
9.425000e+03,-5.92e+01,
9.450000e+03,-5.92e+01,
9.475000e+03,-6.72e+01,
9.500000e+03,-6.32e+01,
9.525000e+03,-6.00e+01,
9.550000e+03,-6.64e+01,
9.575000e+03,-5.20e+01,
9.600000e+03,-6.24e+01,
9.625000e+03,-6.64e+01,
9.650000e+03,-6.16e+01,
9.675000e+03,-7.28e+01,
9.700000e+03,-6.80e+01,
9.725000e+03,-5.92e+01,
9.750000e+03,-5.60e+01,
9.775000e+03,-6.96e+01,
9.800000e+03,-6.80e+01,
9.825000e+03,-6.64e+01,
9.850000e+03,-8.00e+01,
9.875000e+03,-6.72e+01,
9.900000e+03,-6.32e+01,
9.925000e+03,-6.08e+01,
9.950000e+03,-6.40e+01,
9.975000e+03,-6.48e+01,
1.000000e+04,-6.00e+01,
1.002500e+04,-6.32e+01,
1.005000e+04,-6.08e+01,
1.007500e+04,-6.72e+01,
1.010000e+04,-6.80e+01,
1.012500e+04,-7.12e+01,
1.015000e+04,-5.84e+01,
1.017500e+04,-6.24e+01,
1.020000e+04,-6.24e+01,
1.022500e+04,-6.72e+01,
1.025000e+04,-6.24e+01,
1.027500e+04,-6.00e+01,
1.030000e+04,-5.92e+01,
1.032500e+04,-6.16e+01,
1.035000e+04,-6.72e+01,
1.037500e+04,-6.80e+01,
1.040000e+04,-6.16e+01,
1.042500e+04,-6.56e+01,
1.045000e+04,-6.64e+01,
1.047500e+04,-6.08e+01,
1.050000e+04,-6.56e+01,
1.052500e+04,-6.48e+01,
1.055000e+04,-6.72e+01,
1.057500e+04,-6.64e+01,
1.060000e+04,-6.56e+01,
1.062500e+04,-5.84e+01,
1.065000e+04,-6.88e+01,
1.067500e+04,-6.56e+01,
1.070000e+04,-5.84e+01,
1.072500e+04,-6.32e+01,
1.075000e+04,-6.24e+01,
1.077500e+04,-6.40e+01,
1.080000e+04,-6.64e+01,
1.082500e+04,-6.08e+01,
1.085000e+04,-6.80e+01,
1.087500e+04,-7.04e+01,
1.090000e+04,-6.24e+01,
1.092500e+04,-6.56e+01,
1.095000e+04,-6.56e+01,
1.097500e+04,-6.88e+01,
1.100000e+04,-7.28e+01,
1.102500e+04,-6.40e+01,
1.105000e+04,-6.96e+01,
1.107500e+04,-6.88e+01,
1.110000e+04,-6.32e+01,
1.112500e+04,-6.32e+01,
1.115000e+04,-6.40e+01,
1.117500e+04,-7.28e+01,
1.120000e+04,-6.72e+01,
1.122500e+04,-6.40e+01,
1.125000e+04,-6.48e+01,
1.127500e+04,-6.32e+01,
1.130000e+04,-6.08e+01,
1.132500e+04,-6.48e+01,
1.135000e+04,-6.32e+01,
1.137500e+04,-6.24e+01,
1.140000e+04,-6.32e+01,
1.142500e+04,-6.96e+01,
1.145000e+04,-6.40e+01,
1.147500e+04,-6.24e+01,
1.150000e+04,-6.40e+01,
1.152500e+04,-6.32e+01,
1.155000e+04,-5.84e+01,
1.157500e+04,-6.32e+01,
1.160000e+04,-6.40e+01,
1.162500e+04,-7.20e+01,
1.165000e+04,-6.64e+01,
1.167500e+04,-6.72e+01,
1.170000e+04,-6.00e+01,
1.172500e+04,-6.16e+01,
1.175000e+04,-6.40e+01,
1.177500e+04,-6.72e+01,
1.180000e+04,-6.64e+01,
1.182500e+04,-6.64e+01,
1.185000e+04,-7.04e+01,
1.187500e+04,-6.40e+01,
1.190000e+04,-7.04e+01,
1.192500e+04,-6.64e+01,
1.195000e+04,-6.16e+01,
1.197500e+04,-6.40e+01,
1.200000e+04,-6.72e+01,
1.202500e+04,-6.24e+01,
1.205000e+04,-6.16e+01,
1.207500e+04,-7.36e+01,
1.210000e+04,-7.28e+01,
1.212500e+04,-5.76e+01,
1.215000e+04,-6.80e+01,
1.217500e+04,-6.72e+01,
1.220000e+04,-6.32e+01,
1.222500e+04,-6.32e+01,
1.225000e+04,-6.16e+01,
1.227500e+04,-6.08e+01,
1.230000e+04,-6.16e+01,
1.232500e+04,-7.12e+01,
1.235000e+04,-6.24e+01,
1.237500e+04,-6.24e+01,
1.240000e+04,-5.92e+01,
1.242500e+04,-6.88e+01,
1.245000e+04,-6.72e+01,
1.247500e+04,-6.32e+01,
1.250000e+04,-6.72e+01,
1.252500e+04,-7.28e+01,
1.255000e+04,-6.48e+01,
1.257500e+04,-6.96e+01,
1.260000e+04,-6.08e+01,
1.262500e+04,-6.32e+01,
1.265000e+04,-7.44e+01,
1.267500e+04,-6.16e+01,
1.270000e+04,-7.28e+01,
1.272500e+04,-6.72e+01,
1.275000e+04,-6.40e+01,
1.277500e+04,-6.40e+01,
1.280000e+04,-5.92e+01,
1.282500e+04,-6.16e+01,
1.285000e+04,-7.36e+01,
1.287500e+04,-6.48e+01,
1.290000e+04,-6.56e+01,
1.292500e+04,-6.64e+01,
1.295000e+04,-6.08e+01,
1.297500e+04,-6.24e+01,
1.300000e+04,-6.48e+01,
1.302500e+04,-6.32e+01,
1.305000e+04,-6.32e+01,
1.307500e+04,-6.32e+01,
1.310000e+04,-5.84e+01,
1.312500e+04,-5.60e+01,
1.315000e+04,-6.64e+01,
1.317500e+04,-6.08e+01,
1.320000e+04,-6.96e+01,
1.322500e+04,-6.24e+01,
1.325000e+04,-6.32e+01,
1.327500e+04,-6.80e+01,
1.330000e+04,-7.60e+01,
1.332500e+04,-6.40e+01,
1.335000e+04,-8.32e+01,
1.337500e+04,-7.12e+01,
1.340000e+04,-6.56e+01,
1.342500e+04,-6.40e+01,
1.345000e+04,-6.16e+01,
1.347500e+04,-6.00e+01,
1.350000e+04,-6.32e+01,
1.352500e+04,-6.48e+01,
1.355000e+04,-7.28e+01,
1.357500e+04,-6.48e+01,
1.360000e+04,-6.16e+01,
1.362500e+04,-6.48e+01,
1.365000e+04,-6.48e+01,
1.367500e+04,-6.96e+01,
1.370000e+04,-6.24e+01,
1.372500e+04,-5.92e+01,
1.375000e+04,-6.64e+01,
1.377500e+04,-6.48e+01,
1.380000e+04,-6.32e+01,
1.382500e+04,-6.48e+01,
1.385000e+04,-6.40e+01,
1.387500e+04,-6.32e+01,
1.390000e+04,-6.48e+01,
1.392500e+04,-6.80e+01,
1.395000e+04,-6.24e+01,
1.397500e+04,-6.48e+01,
1.400000e+04,-7.68e+01,
1.402500e+04,-6.56e+01,
1.405000e+04,-9.04e+01,
1.407500e+04,-6.72e+01,
1.410000e+04,-7.28e+01,
1.412500e+04,-7.44e+01,
1.415000e+04,-7.04e+01,
1.417500e+04,-6.08e+01,
1.420000e+04,-6.88e+01,
1.422500e+04,-6.00e+01,
1.425000e+04,-6.48e+01,
1.427500e+04,-6.80e+01,
1.430000e+04,-6.96e+01,
1.432500e+04,-6.16e+01,
1.435000e+04,-5.84e+01,
1.437500e+04,-6.16e+01,
1.440000e+04,-6.88e+01,
1.442500e+04,-7.44e+01,
1.445000e+04,-6.40e+01,
1.447500e+04,-6.48e+01,
1.450000e+04,-5.84e+01,
1.452500e+04,-5.76e+01,
1.455000e+04,-6.16e+01,
1.457500e+04,-6.16e+01,
1.460000e+04,-6.24e+01,
1.462500e+04,-7.20e+01,
1.465000e+04,-7.12e+01,
1.467500e+04,-6.16e+01,
1.470000e+04,-6.08e+01,
1.472500e+04,-6.80e+01,
1.475000e+04,-7.04e+01,
1.477500e+04,-6.64e+01,
1.480000e+04,-6.40e+01,
1.482500e+04,-7.04e+01,
1.485000e+04,-6.88e+01,
1.487500e+04,-6.64e+01,
1.490000e+04,-6.72e+01,
1.492500e+04,-6.08e+01,
1.495000e+04,-6.40e+01,
1.497500e+04,-7.44e+01,
1.500000e+04,-7.20e+01,
1.502500e+04,-6.40e+01,
1.505000e+04,-5.92e+01,
1.507500e+04,-5.84e+01,
1.510000e+04,-6.16e+01,
1.512500e+04,-6.56e+01,
1.515000e+04,-6.16e+01,
1.517500e+04,-6.56e+01,
1.520000e+04,-6.80e+01,
1.522500e+04,-6.96e+01,
1.525000e+04,-6.40e+01,
1.527500e+04,-6.16e+01,
1.530000e+04,-6.48e+01,
1.532500e+04,-5.92e+01,
1.535000e+04,-6.32e+01,
1.537500e+04,-7.52e+01,
1.540000e+04,-7.36e+01,
1.542500e+04,-6.48e+01,
1.545000e+04,-7.92e+01,
1.547500e+04,-6.24e+01,
1.550000e+04,-7.12e+01,
1.552500e+04,-7.20e+01,
1.555000e+04,-6.16e+01,
1.557500e+04,-7.76e+01,
1.560000e+04,-5.92e+01,
1.562500e+04,-6.16e+01,
1.565000e+04,-5.84e+01,
1.567500e+04,-6.24e+01,
1.570000e+04,-6.08e+01,
1.572500e+04,-6.72e+01,
1.575000e+04,-6.16e+01,
1.577500e+04,-6.64e+01,
1.580000e+04,-5.92e+01,
1.582500e+04,-6.16e+01,
1.585000e+04,-6.08e+01,
1.587500e+04,-7.28e+01,
1.590000e+04,-6.72e+01,
1.592500e+04,-6.72e+01,
1.595000e+04,-6.16e+01,
1.597500e+04,-6.24e+01,
1.600000e+04,-7.68e+01,
1.602500e+04,-6.40e+01,
1.605000e+04,-6.16e+01,
1.607500e+04,-6.08e+01,
1.610000e+04,-7.36e+01,
1.612500e+04,-6.08e+01,
1.615000e+04,-7.04e+01,
1.617500e+04,-6.24e+01,
1.620000e+04,-7.20e+01,
1.622500e+04,-6.16e+01,
1.625000e+04,-6.24e+01,
1.627500e+04,-7.28e+01,
1.630000e+04,-6.56e+01,
1.632500e+04,-6.40e+01,
1.635000e+04,-6.96e+01,
1.637500e+04,-6.32e+01,
1.640000e+04,-6.24e+01,
1.642500e+04,-6.16e+01,
1.645000e+04,-6.32e+01,
1.647500e+04,-6.08e+01,
1.650000e+04,-6.72e+01,
1.652500e+04,-7.92e+01,
1.655000e+04,-7.28e+01,
1.657500e+04,-6.08e+01,
1.660000e+04,-6.24e+01,
1.662500e+04,-6.00e+01,
1.665000e+04,-7.28e+01,
1.667500e+04,-6.00e+01,
1.670000e+04,-6.88e+01,
1.672500e+04,-7.36e+01,
1.675000e+04,-7.04e+01,
1.677500e+04,-6.40e+01,
1.680000e+04,-6.32e+01,
1.682500e+04,-6.00e+01,
1.685000e+04,-5.92e+01,
1.687500e+04,-6.96e+01,
1.690000e+04,-6.80e+01,
1.692500e+04,-6.48e+01,
1.695000e+04,-6.48e+01,
1.697500e+04,-6.72e+01,
1.700000e+04,-6.16e+01,
1.702500e+04,-6.80e+01,
1.705000e+04,-6.80e+01,
1.707500e+04,-6.56e+01,
1.710000e+04,-6.48e+01,
1.712500e+04,-6.88e+01,
1.715000e+04,-6.08e+01,
1.717500e+04,-6.08e+01,
1.720000e+04,-6.48e+01,
1.722500e+04,-6.96e+01,
1.725000e+04,-6.00e+01,
1.727500e+04,-6.32e+01,
1.730000e+04,-7.60e+01,
1.732500e+04,-6.16e+01,
1.735000e+04,-6.64e+01,
1.737500e+04,-6.40e+01,
1.740000e+04,-6.48e+01,
1.742500e+04,-5.84e+01,
1.745000e+04,-6.80e+01,
1.747500e+04,-6.80e+01,
1.750000e+04,-6.16e+01,
1.752500e+04,-6.24e+01,
1.755000e+04,-6.64e+01,
1.757500e+04,-6.80e+01,
1.760000e+04,-6.96e+01,
1.762500e+04,-5.84e+01,
1.765000e+04,-6.40e+01,
1.767500e+04,-7.44e+01,
1.770000e+04,-6.48e+01,
1.772500e+04,-7.04e+01,
1.775000e+04,-6.40e+01,
1.777500e+04,-6.16e+01,
1.780000e+04,-6.80e+01,
1.782500e+04,-6.88e+01,
1.785000e+04,-5.84e+01,
1.787500e+04,-7.60e+01,
1.790000e+04,-6.24e+01,
1.792500e+04,-6.32e+01,
1.795000e+04,-7.04e+01,
1.797500e+04,-7.20e+01,
1.800000e+04,-6.32e+01,
1.802500e+04,-6.08e+01,
1.805000e+04,-6.96e+01,
1.807500e+04,-6.72e+01,
1.810000e+04,-6.40e+01,
1.812500e+04,-6.56e+01,
1.815000e+04,-7.20e+01,
1.817500e+04,-6.40e+01,
1.820000e+04,-6.72e+01,
1.822500e+04,-6.64e+01,
1.825000e+04,-6.40e+01,
1.827500e+04,-6.40e+01,
1.830000e+04,-8.32e+01,
1.832500e+04,-5.84e+01,
1.835000e+04,-6.40e+01,
1.837500e+04,-6.16e+01,
1.840000e+04,-5.92e+01,
1.842500e+04,-6.24e+01,
1.845000e+04,-7.12e+01,
1.847500e+04,-6.32e+01,
1.850000e+04,-6.08e+01,
1.852500e+04,-6.80e+01,
1.855000e+04,-6.64e+01,
1.857500e+04,-6.40e+01,
1.860000e+04,-6.56e+01,
1.862500e+04,-6.16e+01,
1.865000e+04,-6.64e+01,
1.867500e+04,-7.04e+01,
1.870000e+04,-7.12e+01,
1.872500e+04,-6.32e+01,
1.875000e+04,-6.32e+01,
1.877500e+04,-6.56e+01,
1.880000e+04,-7.44e+01,
1.882500e+04,-8.72e+01,
1.885000e+04,-6.32e+01,
1.887500e+04,-6.64e+01,
1.890000e+04,-6.32e+01,
1.892500e+04,-6.16e+01,
1.895000e+04,-6.40e+01,
1.897500e+04,-6.56e+01,
1.900000e+04,-6.24e+01,
1.902500e+04,-6.32e+01,
1.905000e+04,-6.32e+01,
1.907500e+04,-6.08e+01,
1.910000e+04,-5.68e+01,
1.912500e+04,-7.20e+01,
1.915000e+04,-8.00e+01,
1.917500e+04,-6.64e+01,
1.920000e+04,-5.92e+01,
1.922500e+04,-6.80e+01,
1.925000e+04,-6.80e+01,
1.927500e+04,-6.32e+01,
1.930000e+04,-6.88e+01,
1.932500e+04,-6.32e+01,
1.935000e+04,-6.32e+01,
1.937500e+04,-6.16e+01,
1.940000e+04,-6.64e+01,
1.942500e+04,-7.20e+01,
1.945000e+04,-6.32e+01,
1.947500e+04,-6.16e+01,
1.950000e+04,-6.16e+01,
1.952500e+04,-6.40e+01,
1.955000e+04,-6.48e+01,
1.957500e+04,-6.32e+01,
1.960000e+04,-7.44e+01,
1.962500e+04,-6.96e+01,
1.965000e+04,-6.56e+01,
1.967500e+04,-6.96e+01,
1.970000e+04,-6.56e+01,
1.972500e+04,-7.20e+01,
1.975000e+04,-6.24e+01,
1.977500e+04,-6.24e+01,
1.980000e+04,-5.76e+01,
1.982500e+04,-6.88e+01,
1.985000e+04,-7.36e+01,
1.987500e+04,-5.92e+01,
1.990000e+04,-5.92e+01,
1.992500e+04,-6.96e+01,
1.995000e+04,-6.32e+01,
1.997500e+04,-7.76e+01,
2.000000e+04,-7.52e+01,
2.002500e+04,-6.16e+01,
2.005000e+04,-6.88e+01,
2.007500e+04,-6.72e+01,
2.010000e+04,-6.48e+01,
2.012500e+04,-6.48e+01,
2.015000e+04,-7.04e+01,
2.017500e+04,-6.32e+01,
2.020000e+04,-6.56e+01,
2.022500e+04,-7.52e+01,
2.025000e+04,-6.72e+01,
2.027500e+04,-7.28e+01,
2.030000e+04,-6.32e+01,
2.032500e+04,-6.88e+01,
2.035000e+04,-6.56e+01,
2.037500e+04,-6.48e+01,
2.040000e+04,-7.04e+01,
